…
``` r
data_05 <- full_data %>% 
    group_by(hgnc_symbol) %>% 
    summarize(pvalue = t.test(Count ~ disease)$p.value) %>% 
  filter(pvalue < 0.05)

data_05
```

    ## # A tibble: 2,531 x 2
    ##    hgnc_symbol   pvalue
    ##    <fct>          <dbl>
    ##  1 A1BG-AS1    0.0366  
    ##  2 A2MP1       0.0245  
    ##  3 AADAT       0.0304  
    ##  4 AAED1       0.0367  
    ##  5 AAK1        0.0229  
    ##  6 AARS2       0.0416  
    ##  7 ABCB1       0.00351 
    ##  8 ABCB10      0.0302  
    ##  9 ABCC3       0.0342  
    ## 10 ABCC6P1     0.000528
    ## # ... with 2,521 more rows
